{
	"pages": [ //pages数组中第一项表示应用启动页，参考：https://uniapp.dcloud.io/collocation/pages
		{
			"path": "tabBar/home/index",
			"style": {
				"navigationBarTitleText": "首页",
        "navigationStyle":"custom"
			}
		},
    {
    	"path": "tabBar/moment/index",
    	"style": {
    		"navigationBarTitleText": "时刻",
        "navigationStyle":"custom"
    	}
    },
    {
    	"path": "tabBar/profile/index",
    	"style": {
    		"navigationBarTitleText": "我的",
        "navigationStyle":"custom"
    	}
    }
	],
  "subPackages":[
    {
      "root":"pages",
      "pages":[
        {
          "path":"login/login",
          "style":{
            "navigationStyle":"custom"
          }
        }
      ]
    }
  ],
  "tabBar": {
    "color":"#FFFFFF",
    "selectedColor":"#007AFF",
    "backgroundColor":"#333333",
    "list":[
      {
        "pagePath":"tabBar/home/index",
        "text":"首页"
      },
      {
        "pagePath":"tabBar/moment/index",
        "text":"时刻"
      },
      {
        "pagePath":"tabBar/profile/index",
        "text":"我的"
      }
    ]
  },
	"globalStyle": {
		"navigationBarTextStyle": "black",
		"navigationBarTitleText": "uni-app",
		"navigationBarBackgroundColor": "#F8F8F8",
		"backgroundColor": "#F8F8F8"
	}
}
